…
```r
ch_generate('job', 'phone_number', n = 30)
#> # A tibble: 30 × 2
#>                               job        phone_number
#>                             <chr>               <chr>
#> 1              Professor Emeritus  (580)033-8371x7006
#> 2               Quantity surveyor  1-761-442-4063x272
#> 3            Pharmacist, hospital 1-833-355-0570x8697
#> 4                   Airline pilot        461.606.7965
#> 5        Environmental consultant    +02(9)4200362185
#> 6  Commercial art gallery manager  757-029-5496x11263
#> 7                Insurance broker         03285024221
#> 8  Chartered certified accountant  475.801.5730x41650
#> 9  Therapist, speech and language  (613)006-8288x5464
#> 10       Print production planner        750-282-6785
#> # ... with 20 more rows
```
…
